('C:\\Users\\ale.gre8982\\Desktop\\python '
 'projects\\notesapp\\notesapp\\build\\notesapp\\notesapp.exe',
 False,
 False,
 True,
 ['C:\\Users\\ale.gre8982\\Desktop\\python '
  'projects\\notesapp\\notesapp\\notesapp_icon.ico'],
 None,
 False,
 False,
 '<?xml version="1.0" encoding="UTF-8" standalone="yes"?><assembly xmlns="urn:schemas-microsoft-com:asm.v1" manifestVersion="1.0"><assemblyIdentity type="win32" name="notesapp" processorArchitecture="amd64" version="1.0.0.0"/><trustInfo xmlns="urn:schemas-microsoft-com:asm.v3"><security><requestedPrivileges><requestedExecutionLevel level="asInvoker" uiAccess="false"/></requestedPrivileges></security></trustInfo><dependency><dependentAssembly><assemblyIdentity type="win32" name="Microsoft.Windows.Common-Controls" language="*" processorArchitecture="*" version="6.0.0.0" publicKeyToken="6595b64144ccf1df"/></dependentAssembly></dependency><compatibility xmlns="urn:schemas-microsoft-com:compatibility.v1"><application><supportedOS Id="{e2011457-1546-43c5-a5fe-008deee3d3f0}"/><supportedOS Id="{35138b9a-5d96-4fbd-8e2d-a2440225f93a}"/><supportedOS Id="{4a2f28e3-53b9-4441-ba9c-d69d4a4a6e38}"/><supportedOS Id="{1f676c76-80e1-4239-95bb-83d0f6d0da78}"/><supportedOS Id="{8e0f7a12-bfb3-4fe8-b9a5-48fd50a15a9a}"/></application></compatibility><application xmlns="urn:schemas-microsoft-com:asm.v3"><windowsSettings><longPathAware xmlns="http://schemas.microsoft.com/SMI/2016/WindowsSettings">true</longPathAware></windowsSettings></application></assembly>',
 True,
 True,
 False,
 None,
 None,
 None,
 'C:\\Users\\ale.gre8982\\Desktop\\python '
 'projects\\notesapp\\notesapp\\build\\notesapp\\notesapp.pkg',
 [('PYZ-00.pyz',
   'C:\\Users\\ale.gre8982\\Desktop\\python '
   'projects\\notesapp\\notesapp\\build\\notesapp\\PYZ-00.pyz',
   'PYZ'),
  ('struct',
   'C:\\Users\\ale.gre8982\\Desktop\\python '
   'projects\\notesapp\\notesapp\\build\\notesapp\\localpycs\\struct.pyc',
   'PYMODULE'),
  ('pyimod01_archive',
   'C:\\Users\\ale.gre8982\\Desktop\\python '
   'projects\\notesapp\\notesapp\\build\\notesapp\\localpycs\\pyimod01_archive.pyc',
   'PYMODULE'),
  ('pyimod02_importers',
   'C:\\Users\\ale.gre8982\\Desktop\\python '
   'projects\\notesapp\\notesapp\\build\\notesapp\\localpycs\\pyimod02_importers.pyc',
   'PYMODULE'),
  ('pyimod03_ctypes',
   'C:\\Users\\ale.gre8982\\Desktop\\python '
   'projects\\notesapp\\notesapp\\build\\notesapp\\localpycs\\pyimod03_ctypes.pyc',
   'PYMODULE'),
  ('pyimod04_pywin32',
   'C:\\Users\\ale.gre8982\\Desktop\\python '
   'projects\\notesapp\\notesapp\\build\\notesapp\\localpycs\\pyimod04_pywin32.pyc',
   'PYMODULE'),
  ('pyiboot01_bootstrap',
   'c:\\users\\ale.gre8982\\appdata\\local\\programs\\python\\python38\\lib\\site-packages\\PyInstaller\\loader\\pyiboot01_bootstrap.py',
   'PYSOURCE'),
  ('pyi_rth_inspect',
   'C:\\Users\\ale.gre8982\\AppData\\Local\\Programs\\Python\\Python38\\Lib\\site-packages\\PyInstaller\\hooks\\rthooks\\pyi_rth_inspect.py',
   'PYSOURCE'),
  ('pyi_rth_pkgutil',
   'C:\\Users\\ale.gre8982\\AppData\\Local\\Programs\\Python\\Python38\\Lib\\site-packages\\PyInstaller\\hooks\\rthooks\\pyi_rth_pkgutil.py',
   'PYSOURCE'),
  ('pyi_rth_pkgres',
   'C:\\Users\\ale.gre8982\\AppData\\Local\\Programs\\Python\\Python38\\Lib\\site-packages\\PyInstaller\\hooks\\rthooks\\pyi_rth_pkgres.py',
   'PYSOURCE'),
  ('pyi_rth_setuptools',
   'C:\\Users\\ale.gre8982\\AppData\\Local\\Programs\\Python\\Python38\\Lib\\site-packages\\PyInstaller\\hooks\\rthooks\\pyi_rth_setuptools.py',
   'PYSOURCE'),
  ('pyi_rth__tkinter',
   'C:\\Users\\ale.gre8982\\AppData\\Local\\Programs\\Python\\Python38\\Lib\\site-packages\\PyInstaller\\hooks\\rthooks\\pyi_rth__tkinter.py',
   'PYSOURCE'),
  ('pyi_rth_mplconfig',
   'C:\\Users\\ale.gre8982\\AppData\\Local\\Programs\\Python\\Python38\\Lib\\site-packages\\PyInstaller\\hooks\\rthooks\\pyi_rth_mplconfig.py',
   'PYSOURCE'),
  ('pyi_rth_multiprocessing',
   'C:\\Users\\ale.gre8982\\AppData\\Local\\Programs\\Python\\Python38\\Lib\\site-packages\\PyInstaller\\hooks\\rthooks\\pyi_rth_multiprocessing.py',
   'PYSOURCE'),
  ('notesapp',
   'C:\\Users\\ale.gre8982\\Desktop\\python '
   'projects\\notesapp\\notesapp\\notesapp.py',
   'PYSOURCE'),
  ('Splash-00.res',
   'C:\\Users\\ale.gre8982\\Desktop\\python '
   'projects\\notesapp\\notesapp\\build\\notesapp\\Splash-00.res',
   'SPLASH')],
 [],
 False,
 False,
 1695941250,
 [('runw.exe',
   'c:\\users\\ale.gre8982\\appdata\\local\\programs\\python\\python38\\lib\\site-packages\\PyInstaller\\bootloader\\Windows-64bit-intel\\runw.exe',
   'EXECUTABLE')])
