('C:\\Users\\ale.gre8982\\Desktop\\python '
 'projects\\notesapp\\notesapp\\build\\notesapp\\notesapp.pkg',
 {'BINARY': True,
  'DATA': True,
  'EXECUTABLE': True,
  'EXTENSION': True,
  'PYMODULE': True,
  'PYSOURCE': True,
  'PYZ': False,
  'SPLASH': True},
 [('PYZ-00.pyz',
   'C:\\Users\\ale.gre8982\\Desktop\\python '
   'projects\\notesapp\\notesapp\\build\\notesapp\\PYZ-00.pyz',
   'PYZ'),
  ('struct',
   'C:\\Users\\ale.gre8982\\Desktop\\python '
   'projects\\notesapp\\notesapp\\build\\notesapp\\localpycs\\struct.pyc',
   'PYMODULE'),
  ('pyimod01_archive',
   'C:\\Users\\ale.gre8982\\Desktop\\python '
   'projects\\notesapp\\notesapp\\build\\notesapp\\localpycs\\pyimod01_archive.pyc',
   'PYMODULE'),
  ('pyimod02_importers',
   'C:\\Users\\ale.gre8982\\Desktop\\python '
   'projects\\notesapp\\notesapp\\build\\notesapp\\localpycs\\pyimod02_importers.pyc',
   'PYMODULE'),
  ('pyimod03_ctypes',
   'C:\\Users\\ale.gre8982\\Desktop\\python '
   'projects\\notesapp\\notesapp\\build\\notesapp\\localpycs\\pyimod03_ctypes.pyc',
   'PYMODULE'),
  ('pyimod04_pywin32',
   'C:\\Users\\ale.gre8982\\Desktop\\python '
   'projects\\notesapp\\notesapp\\build\\notesapp\\localpycs\\pyimod04_pywin32.pyc',
   'PYMODULE'),
  ('pyiboot01_bootstrap',
   'c:\\users\\ale.gre8982\\appdata\\local\\programs\\python\\python38\\lib\\site-packages\\PyInstaller\\loader\\pyiboot01_bootstrap.py',
   'PYSOURCE'),
  ('pyi_rth_inspect',
   'C:\\Users\\ale.gre8982\\AppData\\Local\\Programs\\Python\\Python38\\Lib\\site-packages\\PyInstaller\\hooks\\rthooks\\pyi_rth_inspect.py',
   'PYSOURCE'),
  ('pyi_rth_pkgutil',
   'C:\\Users\\ale.gre8982\\AppData\\Local\\Programs\\Python\\Python38\\Lib\\site-packages\\PyInstaller\\hooks\\rthooks\\pyi_rth_pkgutil.py',
   'PYSOURCE'),
  ('pyi_rth_pkgres',
   'C:\\Users\\ale.gre8982\\AppData\\Local\\Programs\\Python\\Python38\\Lib\\site-packages\\PyInstaller\\hooks\\rthooks\\pyi_rth_pkgres.py',
   'PYSOURCE'),
  ('pyi_rth_setuptools',
   'C:\\Users\\ale.gre8982\\AppData\\Local\\Programs\\Python\\Python38\\Lib\\site-packages\\PyInstaller\\hooks\\rthooks\\pyi_rth_setuptools.py',
   'PYSOURCE'),
  ('pyi_rth__tkinter',
   'C:\\Users\\ale.gre8982\\AppData\\Local\\Programs\\Python\\Python38\\Lib\\site-packages\\PyInstaller\\hooks\\rthooks\\pyi_rth__tkinter.py',
   'PYSOURCE'),
  ('pyi_rth_mplconfig',
   'C:\\Users\\ale.gre8982\\AppData\\Local\\Programs\\Python\\Python38\\Lib\\site-packages\\PyInstaller\\hooks\\rthooks\\pyi_rth_mplconfig.py',
   'PYSOURCE'),
  ('pyi_rth_multiprocessing',
   'C:\\Users\\ale.gre8982\\AppData\\Local\\Programs\\Python\\Python38\\Lib\\site-packages\\PyInstaller\\hooks\\rthooks\\pyi_rth_multiprocessing.py',
   'PYSOURCE'),
  ('notesapp',
   'C:\\Users\\ale.gre8982\\Desktop\\python '
   'projects\\notesapp\\notesapp\\notesapp.py',
   'PYSOURCE'),
  ('Splash-00.res',
   'C:\\Users\\ale.gre8982\\Desktop\\python '
   'projects\\notesapp\\notesapp\\build\\notesapp\\Splash-00.res',
   'SPLASH')],
 True,
 False,
 False,
 [],
 None,
 None,
 None)
